\relax 
\providecommand\hyper@newdestlabel[2]{}
\gdef \LT@xliii {\LT@entry 
    {3}{44.81248pt}\LT@entry 
    {3}{161.60765pt}}
\gdef \LT@xliv {\LT@entry 
    {3}{17.8039pt}\LT@entry 
    {3}{95.56715pt}}
\@writefile{toc}{\contentsline {section}{\numberline {4.5}String Conversions}{40}{section.4.5}}
\newlabel{group__STRCONV}{{4.5}{40}{String Conversions}{section.4.5}{}}
\@writefile{toc}{\contentsline {subsection}{\numberline {4.5.1}Detailed Description}{40}{subsection.4.5.1}}
\@writefile{toc}{\contentsline {subsection}{\numberline {4.5.2}Function Documentation}{40}{subsection.4.5.2}}
\newlabel{group__STRCONV_ga8be5df54b86c039f81d2496db2f375de}{{4.5.2}{40}{Function Documentation}{subsection.4.5.2}{}}
\@writefile{toc}{\contentsline {subsubsection}{\numberline {4.5.2.1}Str\discretionary {\unhbox \voidb@x \hbox {\relax \fontsize  {7}{8}\selectfont  $\leftarrow \joinrel  \rhook $}}{}{}Compare()}{40}{subsubsection.4.5.2.1}}
\@setckpt{group__STRCONV}{
\setcounter{page}{41}
\setcounter{equation}{0}
\setcounter{enumi}{0}
\setcounter{enumii}{0}
\setcounter{enumiii}{0}
\setcounter{enumiv}{0}
\setcounter{footnote}{0}
\setcounter{mpfootnote}{0}
\setcounter{part}{0}
\setcounter{chapter}{4}
\setcounter{section}{5}
\setcounter{subsection}{2}
\setcounter{subsubsection}{1}
\setcounter{paragraph}{0}
\setcounter{subparagraph}{0}
\setcounter{figure}{0}
\setcounter{table}{44}
\setcounter{float@type}{4}
\setcounter{LT@tables}{44}
\setcounter{LT@chunks}{3}
\setcounter{NAT@ctr}{0}
\setcounter{lofdepth}{1}
\setcounter{lotdepth}{1}
\setcounter{Item}{0}
\setcounter{Hfootnote}{0}
\setcounter{bookmark@seq@number}{140}
\setcounter{ContinuedFloat}{0}
\setcounter{section@level}{3}
}
