\relax 
\providecommand\hyper@newdestlabel[2]{}
\@writefile{toc}{\contentsline {section}{\numberline {4.4}R\discretionary {\unhbox \voidb@x \hbox {\relax \fontsize  {7}{8}\selectfont  $\leftarrow \joinrel  \rhook $}}{}{}N2483}{31}{section.4.4}}
\newlabel{group__RN2483}{{4.4}{31}{R\+N2483}{section.4.4}{}}
\newlabel{group__RN2483_gabf89d969c5079cb2ba11afc2a34682b7}{{4.4}{31}{Macros}{section*.11}{}}
\newlabel{group__RN2483_gac9ecc722b136f324f121669f27e80cbb}{{4.4}{31}{Functions}{section*.13}{}}
\newlabel{group__RN2483_gadab6e735afd87711977c071a2c749672}{{4.4}{31}{Functions}{section*.13}{}}
\newlabel{group__RN2483_ga15a904a499d9d314df434de8805a2650}{{4.4}{31}{Functions}{section*.13}{}}
\newlabel{group__RN2483_ga77c5de3d4a6774d6f0fa89bd4e6314a8}{{4.4}{31}{Functions}{section*.13}{}}
\newlabel{group__RN2483_ga374481cb6bbe5bab3a3c40332efe30e3}{{4.4}{31}{Functions}{section*.13}{}}
\newlabel{group__RN2483_gab3eecd19410942107f016ad1fbff7325}{{4.4}{31}{Functions}{section*.13}{}}
\newlabel{group__RN2483_ga69abb90eae9e844a1d4f6c82ca925666}{{4.4}{31}{Functions}{section*.13}{}}
\newlabel{group__RN2483_ga2838e7df3b82b1b3bfef5818b7b4545e}{{4.4}{31}{Functions}{section*.13}{}}
\newlabel{group__RN2483_ga0072172c2a9700533071d7e129f9918d}{{4.4}{31}{Functions}{section*.13}{}}
\newlabel{group__RN2483_ga0a07bafe1db82f535752b5ead6d0b3da}{{4.4}{31}{Functions}{section*.13}{}}
\newlabel{group__RN2483_ga5e75cfa5be9253ff31e0a31875ebd982}{{4.4}{31}{Functions}{section*.13}{}}
\newlabel{group__RN2483_gadb17a764a3185010698b4d175ae235ea}{{4.4}{31}{Functions}{section*.13}{}}
\newlabel{group__RN2483_gad2556334abb1ea01e3b4e0dda13f91cf}{{4.4}{31}{Functions}{section*.13}{}}
\newlabel{group__RN2483_gaec4f9f095911efc4d5ae0b5db8472134}{{4.4}{32}{Functions}{section*.13}{}}
\newlabel{group__RN2483_ga5a8d2f0b9cdd4e6e2c8f9dc4fabb0878}{{4.4}{32}{Functions}{section*.13}{}}
\newlabel{group__RN2483_ga9d51e21c7aaca851dc9e47aa4c4a1247}{{4.4}{32}{Functions}{section*.13}{}}
\newlabel{group__RN2483_ga29045d8eca85d46bb648dc7f0e555c9e}{{4.4}{32}{Functions}{section*.13}{}}
\newlabel{group__RN2483_ga7699ea9a2d8c5ade52a270314cd0c353}{{4.4}{32}{Variables}{section*.14}{}}
\newlabel{group__RN2483_gab8d05c7e7aef41d247db9394047a73d8}{{4.4}{32}{Variables}{section*.14}{}}
\newlabel{group__RN2483_ga8ac7d5a64b43d5d06f6963f85e6508da}{{4.4}{32}{Variables}{section*.14}{}}
\newlabel{group__RN2483_ga642fdcd2d299951db1927d4f366644a7}{{4.4}{32}{Variables}{section*.14}{}}
\newlabel{group__RN2483_ga8ddd295893310db73aa274a79a560361}{{4.4}{32}{Variables}{section*.14}{}}
\newlabel{group__RN2483_gaf672aef14f37859a2819b71b88b80076}{{4.4}{32}{Variables}{section*.14}{}}
\newlabel{group__RN2483_ga0bc10718e4f376b19855c5d2802fc529}{{4.4}{32}{Variables}{section*.14}{}}
\newlabel{group__RN2483_ga857ef0320681779eb9d49474d43c98e0}{{4.4}{32}{Variables}{section*.14}{}}
\newlabel{group__RN2483_ga6a7fde70a6c6f110a43a8fbc25f7a4e4}{{4.4}{32}{Variables}{section*.14}{}}
\newlabel{group__RN2483_gac39356d1108e00ea7d6826d2f6a5a4d5}{{4.4}{32}{Variables}{section*.14}{}}
\newlabel{group__RN2483_ga6e519a91e7965cef13ad0e55f20b52bd}{{4.4}{32}{Variables}{section*.14}{}}
\newlabel{group__RN2483_ga1c2f39a8083929ca00d72a78499e4c97}{{4.4}{32}{Variables}{section*.14}{}}
\newlabel{group__RN2483_gaccf08a55c4455b9bf767f85337e30202}{{4.4}{32}{Variables}{section*.14}{}}
\newlabel{group__RN2483_gab25a97e006570493d7319eaf5ba004d4}{{4.4}{32}{Variables}{section*.14}{}}
\newlabel{group__RN2483_ga89d822abb3c4ae52ff779aece574dfc1}{{4.4}{32}{Variables}{section*.14}{}}
\newlabel{group__RN2483_ga3816e8908f818d6c9916369a7f94542e}{{4.4}{32}{Variables}{section*.14}{}}
\newlabel{group__RN2483_ga47e69fda0eaa4c17bd7540e28bf88d34}{{4.4}{32}{Variables}{section*.14}{}}
\newlabel{group__RN2483_ga386d40e24e3e92e1d02107f890a6d524}{{4.4}{32}{Variables}{section*.14}{}}
\newlabel{group__RN2483_ga8f961b57f900c3a118af68ae434f0aeb}{{4.4}{32}{Variables}{section*.14}{}}
\newlabel{group__RN2483_ga7c41eb3f71c08c8227597507907ca35e}{{4.4}{32}{Variables}{section*.14}{}}
\newlabel{group__RN2483_ga8edba917aa21a4aaaf2ebb19546b755f}{{4.4}{32}{Variables}{section*.14}{}}
\newlabel{group__RN2483_ga4f0016e5d71398f8f407607aa7d751e3}{{4.4}{32}{Variables}{section*.14}{}}
\newlabel{group__RN2483_ga48ae2c0b07c44115d77599e056562d77}{{4.4}{32}{Variables}{section*.14}{}}
\newlabel{group__RN2483_gace6a69ff58924f23093023f43a50a324}{{4.4}{32}{Variables}{section*.14}{}}
\newlabel{group__RN2483_ga64983aaf12ac0bc1eb17026e814370b8}{{4.4}{32}{Variables}{section*.14}{}}
\newlabel{group__RN2483_ga0e240d37e185cdeb7f3268b15c75c94e}{{4.4}{32}{Variables}{section*.14}{}}
\newlabel{group__RN2483_ga5ff555eac9f3fcb207d45bbdc3accf03}{{4.4}{32}{Variables}{section*.14}{}}
\newlabel{group__RN2483_ga1b843b2d549ba9dd07ddeb070b0f8872}{{4.4}{32}{Variables}{section*.14}{}}
\newlabel{group__RN2483_gad4442b08eb454412af29462ee5ed8394}{{4.4}{32}{Variables}{section*.14}{}}
\newlabel{group__RN2483_ga5fed320518f5bc2c286533e224a04f05}{{4.4}{32}{Variables}{section*.14}{}}
\newlabel{group__RN2483_gab51e6cba46b223a697cd97486a1e7100}{{4.4}{32}{Variables}{section*.14}{}}
\newlabel{group__RN2483_gaddc9440b2aa0f44466bfc5098f0bd1ae}{{4.4}{32}{Variables}{section*.14}{}}
\newlabel{group__RN2483_gabf2769d971add8ccd1abc786b5bbbab8}{{4.4}{32}{Variables}{section*.14}{}}
\newlabel{group__RN2483_ga3743845b28db5cf8227254f67c9cf59b}{{4.4}{32}{Variables}{section*.14}{}}
\newlabel{group__RN2483_ga4a3ac0f7a49df91656220190d9d11b78}{{4.4}{32}{Variables}{section*.14}{}}
\newlabel{group__RN2483_ga4da4b842b7dcaa0b1db75108095235c2}{{4.4}{32}{Variables}{section*.14}{}}
\newlabel{group__RN2483_ga23c51b8f5f912de0840796a25cc90a78}{{4.4}{32}{Variables}{section*.14}{}}
\newlabel{group__RN2483_gafddf13287990ffddcec701a4c1b036f6}{{4.4}{32}{Variables}{section*.14}{}}
\newlabel{group__RN2483_ga5bd85ba27c46578be8d7b82b4b12b9d4}{{4.4}{32}{Variables}{section*.14}{}}
\newlabel{group__RN2483_ga200837199d50e81068e8b5d2fccdee5c}{{4.4}{32}{Variables}{section*.14}{}}
\newlabel{group__RN2483_ga945b6e5f06387c212f924c8eae831e4d}{{4.4}{33}{Variables}{section*.14}{}}
\newlabel{group__RN2483_ga6374372474356216f112b5c4a5483e6e}{{4.4}{33}{Variables}{section*.14}{}}
\newlabel{group__RN2483_gabfa8bb2f53df2bf3545c42ccf940f5c8}{{4.4}{33}{Variables}{section*.14}{}}
\newlabel{group__RN2483_gaac3e68ffadd65901b0a91bcaa666cf8c}{{4.4}{33}{Variables}{section*.14}{}}
\newlabel{group__RN2483_gac0d6b384b8fe6bcecddbe673e911049b}{{4.4}{33}{Variables}{section*.14}{}}
\newlabel{group__RN2483_ga1b5dfcb5c56aaa343578ee48df4a0b18}{{4.4}{33}{Variables}{section*.14}{}}
\newlabel{group__RN2483_ga85cebd546c51763a4a02110cc2d8e868}{{4.4}{33}{Variables}{section*.14}{}}
\newlabel{group__RN2483_ga65edbb77d1bf5b0eedc55b314fdbce6e}{{4.4}{33}{Variables}{section*.14}{}}
\newlabel{group__RN2483_ga54afbf20949c6b34867a50d3f119ad08}{{4.4}{33}{Variables}{section*.14}{}}
\newlabel{group__RN2483_gacd453534746e8c24ac80f86598727823}{{4.4}{33}{Variables}{section*.14}{}}
\@writefile{toc}{\contentsline {subsection}{\numberline {4.4.1}Detailed Description}{33}{subsection.4.4.1}}
\@writefile{toc}{\contentsline {subsection}{\numberline {4.4.2}Macro Definition Documentation}{33}{subsection.4.4.2}}
\newlabel{group__RN2483_ga8a5437d9bdfd9651f1c69c33f6dbf3e7}{{4.4.2}{33}{Macro Definition Documentation}{subsection.4.4.2}{}}
\@writefile{toc}{\contentsline {subsubsection}{\numberline {4.4.2.1}L\discretionary {\unhbox \voidb@x \hbox {\relax \fontsize  {7}{8}\selectfont  $\leftarrow \joinrel  \rhook $}}{}{}O\discretionary {\unhbox \voidb@x \hbox {\relax \fontsize  {7}{8}\selectfont  $\leftarrow \joinrel  \rhook $}}{}{}R\discretionary {\unhbox \voidb@x \hbox {\relax \fontsize  {7}{8}\selectfont  $\leftarrow \joinrel  \rhook $}}{}{}A\discretionary {\unhbox \voidb@x \hbox {\relax \fontsize  {7}{8}\selectfont  $\leftarrow \joinrel  \rhook $}}{}{}\_\discretionary {\unhbox \voidb@x \hbox {\relax \fontsize  {7}{8}\selectfont  $\leftarrow \joinrel  \rhook $}}{}{}\discretionary {\unhbox \voidb@x \hbox {\relax \fontsize  {7}{8}\selectfont  $\leftarrow \joinrel  \rhook $}}{}{}R\discretionary {\unhbox \voidb@x \hbox {\relax \fontsize  {7}{8}\selectfont  $\leftarrow \joinrel  \rhook $}}{}{}X\discretionary {\unhbox \voidb@x \hbox {\relax \fontsize  {7}{8}\selectfont  $\leftarrow \joinrel  \rhook $}}{}{}\_\discretionary {\unhbox \voidb@x \hbox {\relax \fontsize  {7}{8}\selectfont  $\leftarrow \joinrel  \rhook $}}{}{}\discretionary {\unhbox \voidb@x \hbox {\relax \fontsize  {7}{8}\selectfont  $\leftarrow \joinrel  \rhook $}}{}{}B\discretionary {\unhbox \voidb@x \hbox {\relax \fontsize  {7}{8}\selectfont  $\leftarrow \joinrel  \rhook $}}{}{}U\discretionary {\unhbox \voidb@x \hbox {\relax \fontsize  {7}{8}\selectfont  $\leftarrow \joinrel  \rhook $}}{}{}F\discretionary {\unhbox \voidb@x \hbox {\relax \fontsize  {7}{8}\selectfont  $\leftarrow \joinrel  \rhook $}}{}{}F\discretionary {\unhbox \voidb@x \hbox {\relax \fontsize  {7}{8}\selectfont  $\leftarrow \joinrel  \rhook $}}{}{}E\discretionary {\unhbox \voidb@x \hbox {\relax \fontsize  {7}{8}\selectfont  $\leftarrow \joinrel  \rhook $}}{}{}R\discretionary {\unhbox \voidb@x \hbox {\relax \fontsize  {7}{8}\selectfont  $\leftarrow \joinrel  \rhook $}}{}{}\_\discretionary {\unhbox \voidb@x \hbox {\relax \fontsize  {7}{8}\selectfont  $\leftarrow \joinrel  \rhook $}}{}{}\discretionary {\unhbox \voidb@x \hbox {\relax \fontsize  {7}{8}\selectfont  $\leftarrow \joinrel  \rhook $}}{}{}L\discretionary {\unhbox \voidb@x \hbox {\relax \fontsize  {7}{8}\selectfont  $\leftarrow \joinrel  \rhook $}}{}{}E\discretionary {\unhbox \voidb@x \hbox {\relax \fontsize  {7}{8}\selectfont  $\leftarrow \joinrel  \rhook $}}{}{}N\discretionary {\unhbox \voidb@x \hbox {\relax \fontsize  {7}{8}\selectfont  $\leftarrow \joinrel  \rhook $}}{}{}G\discretionary {\unhbox \voidb@x \hbox {\relax \fontsize  {7}{8}\selectfont  $\leftarrow \joinrel  \rhook $}}{}{}TH}{33}{subsubsection.4.4.2.1}}
\newlabel{group__RN2483_gac1a713f9e899579b669f4d2773c2ae7a}{{4.4.2.1}{33}{\texorpdfstring {L\+O\+R\+A\+\_\+\+R\+X\+\_\+\+B\+U\+F\+F\+E\+R\+\_\+\+L\+E\+N\+G\+TH}{LORA\_RX\_BUFFER\_LENGTH}}{subsubsection.4.4.2.1}{}}
\@writefile{toc}{\contentsline {subsubsection}{\numberline {4.4.2.2}L\discretionary {\unhbox \voidb@x \hbox {\relax \fontsize  {7}{8}\selectfont  $\leftarrow \joinrel  \rhook $}}{}{}O\discretionary {\unhbox \voidb@x \hbox {\relax \fontsize  {7}{8}\selectfont  $\leftarrow \joinrel  \rhook $}}{}{}R\discretionary {\unhbox \voidb@x \hbox {\relax \fontsize  {7}{8}\selectfont  $\leftarrow \joinrel  \rhook $}}{}{}A\discretionary {\unhbox \voidb@x \hbox {\relax \fontsize  {7}{8}\selectfont  $\leftarrow \joinrel  \rhook $}}{}{}\_\discretionary {\unhbox \voidb@x \hbox {\relax \fontsize  {7}{8}\selectfont  $\leftarrow \joinrel  \rhook $}}{}{}\discretionary {\unhbox \voidb@x \hbox {\relax \fontsize  {7}{8}\selectfont  $\leftarrow \joinrel  \rhook $}}{}{}T\discretionary {\unhbox \voidb@x \hbox {\relax \fontsize  {7}{8}\selectfont  $\leftarrow \joinrel  \rhook $}}{}{}I\discretionary {\unhbox \voidb@x \hbox {\relax \fontsize  {7}{8}\selectfont  $\leftarrow \joinrel  \rhook $}}{}{}M\discretionary {\unhbox \voidb@x \hbox {\relax \fontsize  {7}{8}\selectfont  $\leftarrow \joinrel  \rhook $}}{}{}E\discretionary {\unhbox \voidb@x \hbox {\relax \fontsize  {7}{8}\selectfont  $\leftarrow \joinrel  \rhook $}}{}{}O\discretionary {\unhbox \voidb@x \hbox {\relax \fontsize  {7}{8}\selectfont  $\leftarrow \joinrel  \rhook $}}{}{}UT}{33}{subsubsection.4.4.2.2}}
\newlabel{group__RN2483_ga5f315fc59a55778af8fa7127ddfb0c75}{{4.4.2.2}{33}{\texorpdfstring {L\+O\+R\+A\+\_\+\+T\+I\+M\+E\+O\+UT}{LORA\_TIMEOUT}}{subsubsection.4.4.2.2}{}}
\@writefile{toc}{\contentsline {subsubsection}{\numberline {4.4.2.3}R\discretionary {\unhbox \voidb@x \hbox {\relax \fontsize  {7}{8}\selectfont  $\leftarrow \joinrel  \rhook $}}{}{}N2483\discretionary {\unhbox \voidb@x \hbox {\relax \fontsize  {7}{8}\selectfont  $\leftarrow \joinrel  \rhook $}}{}{}\_\discretionary {\unhbox \voidb@x \hbox {\relax \fontsize  {7}{8}\selectfont  $\leftarrow \joinrel  \rhook $}}{}{}\discretionary {\unhbox \voidb@x \hbox {\relax \fontsize  {7}{8}\selectfont  $\leftarrow \joinrel  \rhook $}}{}{}L\discretionary {\unhbox \voidb@x \hbox {\relax \fontsize  {7}{8}\selectfont  $\leftarrow \joinrel  \rhook $}}{}{}E\discretionary {\unhbox \voidb@x \hbox {\relax \fontsize  {7}{8}\selectfont  $\leftarrow \joinrel  \rhook $}}{}{}U\discretionary {\unhbox \voidb@x \hbox {\relax \fontsize  {7}{8}\selectfont  $\leftarrow \joinrel  \rhook $}}{}{}A\discretionary {\unhbox \voidb@x \hbox {\relax \fontsize  {7}{8}\selectfont  $\leftarrow \joinrel  \rhook $}}{}{}RT}{33}{subsubsection.4.4.2.3}}
\newlabel{group__RN2483_ga1311ce8d78d596b3e29206092c0b4cfb}{{4.4.2.3}{33}{\texorpdfstring {R\+N2483\+\_\+\+L\+E\+U\+A\+RT}{RN2483\_LEUART}}{subsubsection.4.4.2.3}{}}
\@writefile{toc}{\contentsline {subsubsection}{\numberline {4.4.2.4}R\discretionary {\unhbox \voidb@x \hbox {\relax \fontsize  {7}{8}\selectfont  $\leftarrow \joinrel  \rhook $}}{}{}N2483\discretionary {\unhbox \voidb@x \hbox {\relax \fontsize  {7}{8}\selectfont  $\leftarrow \joinrel  \rhook $}}{}{}\_\discretionary {\unhbox \voidb@x \hbox {\relax \fontsize  {7}{8}\selectfont  $\leftarrow \joinrel  \rhook $}}{}{}\discretionary {\unhbox \voidb@x \hbox {\relax \fontsize  {7}{8}\selectfont  $\leftarrow \joinrel  \rhook $}}{}{}L\discretionary {\unhbox \voidb@x \hbox {\relax \fontsize  {7}{8}\selectfont  $\leftarrow \joinrel  \rhook $}}{}{}E\discretionary {\unhbox \voidb@x \hbox {\relax \fontsize  {7}{8}\selectfont  $\leftarrow \joinrel  \rhook $}}{}{}U\discretionary {\unhbox \voidb@x \hbox {\relax \fontsize  {7}{8}\selectfont  $\leftarrow \joinrel  \rhook $}}{}{}A\discretionary {\unhbox \voidb@x \hbox {\relax \fontsize  {7}{8}\selectfont  $\leftarrow \joinrel  \rhook $}}{}{}R\discretionary {\unhbox \voidb@x \hbox {\relax \fontsize  {7}{8}\selectfont  $\leftarrow \joinrel  \rhook $}}{}{}T\discretionary {\unhbox \voidb@x \hbox {\relax \fontsize  {7}{8}\selectfont  $\leftarrow \joinrel  \rhook $}}{}{}\_\discretionary {\unhbox \voidb@x \hbox {\relax \fontsize  {7}{8}\selectfont  $\leftarrow \joinrel  \rhook $}}{}{}\discretionary {\unhbox \voidb@x \hbox {\relax \fontsize  {7}{8}\selectfont  $\leftarrow \joinrel  \rhook $}}{}{}C\discretionary {\unhbox \voidb@x \hbox {\relax \fontsize  {7}{8}\selectfont  $\leftarrow \joinrel  \rhook $}}{}{}L\discretionary {\unhbox \voidb@x \hbox {\relax \fontsize  {7}{8}\selectfont  $\leftarrow \joinrel  \rhook $}}{}{}O\discretionary {\unhbox \voidb@x \hbox {\relax \fontsize  {7}{8}\selectfont  $\leftarrow \joinrel  \rhook $}}{}{}CK}{33}{subsubsection.4.4.2.4}}
\newlabel{group__RN2483_gaac30144f9a613b4f203cd25ac8a7709c}{{4.4.2.4}{33}{\texorpdfstring {R\+N2483\+\_\+\+L\+E\+U\+A\+R\+T\+\_\+\+C\+L\+O\+CK}{RN2483\_LEUART\_CLOCK}}{subsubsection.4.4.2.4}{}}
\@writefile{toc}{\contentsline {subsubsection}{\numberline {4.4.2.5}R\discretionary {\unhbox \voidb@x \hbox {\relax \fontsize  {7}{8}\selectfont  $\leftarrow \joinrel  \rhook $}}{}{}N2483\discretionary {\unhbox \voidb@x \hbox {\relax \fontsize  {7}{8}\selectfont  $\leftarrow \joinrel  \rhook $}}{}{}\_\discretionary {\unhbox \voidb@x \hbox {\relax \fontsize  {7}{8}\selectfont  $\leftarrow \joinrel  \rhook $}}{}{}\discretionary {\unhbox \voidb@x \hbox {\relax \fontsize  {7}{8}\selectfont  $\leftarrow \joinrel  \rhook $}}{}{}L\discretionary {\unhbox \voidb@x \hbox {\relax \fontsize  {7}{8}\selectfont  $\leftarrow \joinrel  \rhook $}}{}{}E\discretionary {\unhbox \voidb@x \hbox {\relax \fontsize  {7}{8}\selectfont  $\leftarrow \joinrel  \rhook $}}{}{}U\discretionary {\unhbox \voidb@x \hbox {\relax \fontsize  {7}{8}\selectfont  $\leftarrow \joinrel  \rhook $}}{}{}A\discretionary {\unhbox \voidb@x \hbox {\relax \fontsize  {7}{8}\selectfont  $\leftarrow \joinrel  \rhook $}}{}{}R\discretionary {\unhbox \voidb@x \hbox {\relax \fontsize  {7}{8}\selectfont  $\leftarrow \joinrel  \rhook $}}{}{}T\discretionary {\unhbox \voidb@x \hbox {\relax \fontsize  {7}{8}\selectfont  $\leftarrow \joinrel  \rhook $}}{}{}\_\discretionary {\unhbox \voidb@x \hbox {\relax \fontsize  {7}{8}\selectfont  $\leftarrow \joinrel  \rhook $}}{}{}\discretionary {\unhbox \voidb@x \hbox {\relax \fontsize  {7}{8}\selectfont  $\leftarrow \joinrel  \rhook $}}{}{}P\discretionary {\unhbox \voidb@x \hbox {\relax \fontsize  {7}{8}\selectfont  $\leftarrow \joinrel  \rhook $}}{}{}I\discretionary {\unhbox \voidb@x \hbox {\relax \fontsize  {7}{8}\selectfont  $\leftarrow \joinrel  \rhook $}}{}{}N\discretionary {\unhbox \voidb@x \hbox {\relax \fontsize  {7}{8}\selectfont  $\leftarrow \joinrel  \rhook $}}{}{}S\discretionary {\unhbox \voidb@x \hbox {\relax \fontsize  {7}{8}\selectfont  $\leftarrow \joinrel  \rhook $}}{}{}\_\discretionary {\unhbox \voidb@x \hbox {\relax \fontsize  {7}{8}\selectfont  $\leftarrow \joinrel  \rhook $}}{}{}\discretionary {\unhbox \voidb@x \hbox {\relax \fontsize  {7}{8}\selectfont  $\leftarrow \joinrel  \rhook $}}{}{}L\discretionary {\unhbox \voidb@x \hbox {\relax \fontsize  {7}{8}\selectfont  $\leftarrow \joinrel  \rhook $}}{}{}OC}{33}{subsubsection.4.4.2.5}}
\newlabel{group__RN2483_gadbf5ef58b96ba01d7b62c6ac725733ca}{{4.4.2.5}{33}{\texorpdfstring {R\+N2483\+\_\+\+L\+E\+U\+A\+R\+T\+\_\+\+P\+I\+N\+S\+\_\+\+L\+OC}{RN2483\_LEUART\_PINS\_LOC}}{subsubsection.4.4.2.5}{}}
\gdef \LT@xxv {\LT@entry 
    {3}{61.82204pt}\LT@entry 
    {3}{145.47107pt}}
\@writefile{toc}{\contentsline {subsubsection}{\numberline {4.4.2.6}R\discretionary {\unhbox \voidb@x \hbox {\relax \fontsize  {7}{8}\selectfont  $\leftarrow \joinrel  \rhook $}}{}{}N2483\discretionary {\unhbox \voidb@x \hbox {\relax \fontsize  {7}{8}\selectfont  $\leftarrow \joinrel  \rhook $}}{}{}\_\discretionary {\unhbox \voidb@x \hbox {\relax \fontsize  {7}{8}\selectfont  $\leftarrow \joinrel  \rhook $}}{}{}\discretionary {\unhbox \voidb@x \hbox {\relax \fontsize  {7}{8}\selectfont  $\leftarrow \joinrel  \rhook $}}{}{}L\discretionary {\unhbox \voidb@x \hbox {\relax \fontsize  {7}{8}\selectfont  $\leftarrow \joinrel  \rhook $}}{}{}E\discretionary {\unhbox \voidb@x \hbox {\relax \fontsize  {7}{8}\selectfont  $\leftarrow \joinrel  \rhook $}}{}{}U\discretionary {\unhbox \voidb@x \hbox {\relax \fontsize  {7}{8}\selectfont  $\leftarrow \joinrel  \rhook $}}{}{}A\discretionary {\unhbox \voidb@x \hbox {\relax \fontsize  {7}{8}\selectfont  $\leftarrow \joinrel  \rhook $}}{}{}R\discretionary {\unhbox \voidb@x \hbox {\relax \fontsize  {7}{8}\selectfont  $\leftarrow \joinrel  \rhook $}}{}{}T\discretionary {\unhbox \voidb@x \hbox {\relax \fontsize  {7}{8}\selectfont  $\leftarrow \joinrel  \rhook $}}{}{}\_\discretionary {\unhbox \voidb@x \hbox {\relax \fontsize  {7}{8}\selectfont  $\leftarrow \joinrel  \rhook $}}{}{}\discretionary {\unhbox \voidb@x \hbox {\relax \fontsize  {7}{8}\selectfont  $\leftarrow \joinrel  \rhook $}}{}{}Rx\discretionary {\unhbox \voidb@x \hbox {\relax \fontsize  {7}{8}\selectfont  $\leftarrow \joinrel  \rhook $}}{}{}\_\discretionary {\unhbox \voidb@x \hbox {\relax \fontsize  {7}{8}\selectfont  $\leftarrow \joinrel  \rhook $}}{}{}\discretionary {\unhbox \voidb@x \hbox {\relax \fontsize  {7}{8}\selectfont  $\leftarrow \joinrel  \rhook $}}{}{}Pin}{34}{subsubsection.4.4.2.6}}
\newlabel{group__RN2483_gadb5cd9e203de36b8f4e38ac77bfd140d}{{4.4.2.6}{34}{\texorpdfstring {R\+N2483\+\_\+\+L\+E\+U\+A\+R\+T\+\_\+\+Rx\+\_\+\+Pin}{RN2483\_LEUART\_Rx\_Pin}}{subsubsection.4.4.2.6}{}}
\@writefile{toc}{\contentsline {subsubsection}{\numberline {4.4.2.7}R\discretionary {\unhbox \voidb@x \hbox {\relax \fontsize  {7}{8}\selectfont  $\leftarrow \joinrel  \rhook $}}{}{}N2483\discretionary {\unhbox \voidb@x \hbox {\relax \fontsize  {7}{8}\selectfont  $\leftarrow \joinrel  \rhook $}}{}{}\_\discretionary {\unhbox \voidb@x \hbox {\relax \fontsize  {7}{8}\selectfont  $\leftarrow \joinrel  \rhook $}}{}{}\discretionary {\unhbox \voidb@x \hbox {\relax \fontsize  {7}{8}\selectfont  $\leftarrow \joinrel  \rhook $}}{}{}L\discretionary {\unhbox \voidb@x \hbox {\relax \fontsize  {7}{8}\selectfont  $\leftarrow \joinrel  \rhook $}}{}{}E\discretionary {\unhbox \voidb@x \hbox {\relax \fontsize  {7}{8}\selectfont  $\leftarrow \joinrel  \rhook $}}{}{}U\discretionary {\unhbox \voidb@x \hbox {\relax \fontsize  {7}{8}\selectfont  $\leftarrow \joinrel  \rhook $}}{}{}A\discretionary {\unhbox \voidb@x \hbox {\relax \fontsize  {7}{8}\selectfont  $\leftarrow \joinrel  \rhook $}}{}{}R\discretionary {\unhbox \voidb@x \hbox {\relax \fontsize  {7}{8}\selectfont  $\leftarrow \joinrel  \rhook $}}{}{}T\discretionary {\unhbox \voidb@x \hbox {\relax \fontsize  {7}{8}\selectfont  $\leftarrow \joinrel  \rhook $}}{}{}\_\discretionary {\unhbox \voidb@x \hbox {\relax \fontsize  {7}{8}\selectfont  $\leftarrow \joinrel  \rhook $}}{}{}\discretionary {\unhbox \voidb@x \hbox {\relax \fontsize  {7}{8}\selectfont  $\leftarrow \joinrel  \rhook $}}{}{}Rx\discretionary {\unhbox \voidb@x \hbox {\relax \fontsize  {7}{8}\selectfont  $\leftarrow \joinrel  \rhook $}}{}{}\_\discretionary {\unhbox \voidb@x \hbox {\relax \fontsize  {7}{8}\selectfont  $\leftarrow \joinrel  \rhook $}}{}{}\discretionary {\unhbox \voidb@x \hbox {\relax \fontsize  {7}{8}\selectfont  $\leftarrow \joinrel  \rhook $}}{}{}Port}{34}{subsubsection.4.4.2.7}}
\newlabel{group__RN2483_ga324900c9486b39c33ec97a0b4cd7a5c4}{{4.4.2.7}{34}{\texorpdfstring {R\+N2483\+\_\+\+L\+E\+U\+A\+R\+T\+\_\+\+Rx\+\_\+\+Port}{RN2483\_LEUART\_Rx\_Port}}{subsubsection.4.4.2.7}{}}
\@writefile{toc}{\contentsline {subsubsection}{\numberline {4.4.2.8}R\discretionary {\unhbox \voidb@x \hbox {\relax \fontsize  {7}{8}\selectfont  $\leftarrow \joinrel  \rhook $}}{}{}N2483\discretionary {\unhbox \voidb@x \hbox {\relax \fontsize  {7}{8}\selectfont  $\leftarrow \joinrel  \rhook $}}{}{}\_\discretionary {\unhbox \voidb@x \hbox {\relax \fontsize  {7}{8}\selectfont  $\leftarrow \joinrel  \rhook $}}{}{}\discretionary {\unhbox \voidb@x \hbox {\relax \fontsize  {7}{8}\selectfont  $\leftarrow \joinrel  \rhook $}}{}{}L\discretionary {\unhbox \voidb@x \hbox {\relax \fontsize  {7}{8}\selectfont  $\leftarrow \joinrel  \rhook $}}{}{}E\discretionary {\unhbox \voidb@x \hbox {\relax \fontsize  {7}{8}\selectfont  $\leftarrow \joinrel  \rhook $}}{}{}U\discretionary {\unhbox \voidb@x \hbox {\relax \fontsize  {7}{8}\selectfont  $\leftarrow \joinrel  \rhook $}}{}{}A\discretionary {\unhbox \voidb@x \hbox {\relax \fontsize  {7}{8}\selectfont  $\leftarrow \joinrel  \rhook $}}{}{}R\discretionary {\unhbox \voidb@x \hbox {\relax \fontsize  {7}{8}\selectfont  $\leftarrow \joinrel  \rhook $}}{}{}T\discretionary {\unhbox \voidb@x \hbox {\relax \fontsize  {7}{8}\selectfont  $\leftarrow \joinrel  \rhook $}}{}{}\_\discretionary {\unhbox \voidb@x \hbox {\relax \fontsize  {7}{8}\selectfont  $\leftarrow \joinrel  \rhook $}}{}{}\discretionary {\unhbox \voidb@x \hbox {\relax \fontsize  {7}{8}\selectfont  $\leftarrow \joinrel  \rhook $}}{}{}Tx\discretionary {\unhbox \voidb@x \hbox {\relax \fontsize  {7}{8}\selectfont  $\leftarrow \joinrel  \rhook $}}{}{}\_\discretionary {\unhbox \voidb@x \hbox {\relax \fontsize  {7}{8}\selectfont  $\leftarrow \joinrel  \rhook $}}{}{}\discretionary {\unhbox \voidb@x \hbox {\relax \fontsize  {7}{8}\selectfont  $\leftarrow \joinrel  \rhook $}}{}{}Pin}{34}{subsubsection.4.4.2.8}}
\newlabel{group__RN2483_gae02601658efb146b15ef9fd4b38964dd}{{4.4.2.8}{34}{\texorpdfstring {R\+N2483\+\_\+\+L\+E\+U\+A\+R\+T\+\_\+\+Tx\+\_\+\+Pin}{RN2483\_LEUART\_Tx\_Pin}}{subsubsection.4.4.2.8}{}}
\@writefile{toc}{\contentsline {subsubsection}{\numberline {4.4.2.9}R\discretionary {\unhbox \voidb@x \hbox {\relax \fontsize  {7}{8}\selectfont  $\leftarrow \joinrel  \rhook $}}{}{}N2483\discretionary {\unhbox \voidb@x \hbox {\relax \fontsize  {7}{8}\selectfont  $\leftarrow \joinrel  \rhook $}}{}{}\_\discretionary {\unhbox \voidb@x \hbox {\relax \fontsize  {7}{8}\selectfont  $\leftarrow \joinrel  \rhook $}}{}{}\discretionary {\unhbox \voidb@x \hbox {\relax \fontsize  {7}{8}\selectfont  $\leftarrow \joinrel  \rhook $}}{}{}L\discretionary {\unhbox \voidb@x \hbox {\relax \fontsize  {7}{8}\selectfont  $\leftarrow \joinrel  \rhook $}}{}{}E\discretionary {\unhbox \voidb@x \hbox {\relax \fontsize  {7}{8}\selectfont  $\leftarrow \joinrel  \rhook $}}{}{}U\discretionary {\unhbox \voidb@x \hbox {\relax \fontsize  {7}{8}\selectfont  $\leftarrow \joinrel  \rhook $}}{}{}A\discretionary {\unhbox \voidb@x \hbox {\relax \fontsize  {7}{8}\selectfont  $\leftarrow \joinrel  \rhook $}}{}{}R\discretionary {\unhbox \voidb@x \hbox {\relax \fontsize  {7}{8}\selectfont  $\leftarrow \joinrel  \rhook $}}{}{}T\discretionary {\unhbox \voidb@x \hbox {\relax \fontsize  {7}{8}\selectfont  $\leftarrow \joinrel  \rhook $}}{}{}\_\discretionary {\unhbox \voidb@x \hbox {\relax \fontsize  {7}{8}\selectfont  $\leftarrow \joinrel  \rhook $}}{}{}\discretionary {\unhbox \voidb@x \hbox {\relax \fontsize  {7}{8}\selectfont  $\leftarrow \joinrel  \rhook $}}{}{}Tx\discretionary {\unhbox \voidb@x \hbox {\relax \fontsize  {7}{8}\selectfont  $\leftarrow \joinrel  \rhook $}}{}{}\_\discretionary {\unhbox \voidb@x \hbox {\relax \fontsize  {7}{8}\selectfont  $\leftarrow \joinrel  \rhook $}}{}{}\discretionary {\unhbox \voidb@x \hbox {\relax \fontsize  {7}{8}\selectfont  $\leftarrow \joinrel  \rhook $}}{}{}Port}{34}{subsubsection.4.4.2.9}}
\@writefile{toc}{\contentsline {subsection}{\numberline {4.4.3}Enumeration Type Documentation}{34}{subsection.4.4.3}}
\newlabel{group__RN2483_gac3ebf7f32ce2165d4f097b5df1547c10}{{4.4.3}{34}{Enumeration Type Documentation}{subsection.4.4.3}{}}
\@writefile{toc}{\contentsline {subsubsection}{\numberline {4.4.3.1}Join\discretionary {\unhbox \voidb@x \hbox {\relax \fontsize  {7}{8}\selectfont  $\leftarrow \joinrel  \rhook $}}{}{}Setup}{34}{subsubsection.4.4.3.1}}
\newlabel{group__RN2483_ggac3ebf7f32ce2165d4f097b5df1547c10a98ad84226ad4653599583b882775e04c}{{4.25}{34}{\texorpdfstring {Join\+Setup}{JoinSetup}}{table.4.25}{}}
\newlabel{group__RN2483_ggac3ebf7f32ce2165d4f097b5df1547c10a101ed8eea7a3916013b5e40ccf09d9c0}{{4.25}{34}{\texorpdfstring {Join\+Setup}{JoinSetup}}{table.4.25}{}}
\newlabel{group__RN2483_gacb2f570a8a6c9b4de627e1d50b780f6b}{{4.4.3.1}{34}{\texorpdfstring {Join\+Setup}{JoinSetup}}{table.4.25}{}}
\@writefile{toc}{\contentsline {subsubsection}{\numberline {4.4.3.2}Receive\discretionary {\unhbox \voidb@x \hbox {\relax \fontsize  {7}{8}\selectfont  $\leftarrow \joinrel  \rhook $}}{}{}Response}{34}{subsubsection.4.4.3.2}}
\gdef \LT@xxvi {\LT@entry 
    {3}{130.10391pt}\LT@entry 
    {3}{325.1402pt}}
\gdef \LT@xxvii {\LT@entry 
    {3}{93.87956pt}\LT@entry 
    {3}{242.41727pt}}
\newlabel{group__RN2483_ggacb2f570a8a6c9b4de627e1d50b780f6ba51b6d68f8ab3f3fc1da6f1c1ed7308c6}{{4.26}{35}{\texorpdfstring {Receive\+Response}{ReceiveResponse}}{table.4.26}{}}
\newlabel{group__RN2483_ggacb2f570a8a6c9b4de627e1d50b780f6ba1b21bf0195900802a2a413bae3172fd1}{{4.26}{35}{\texorpdfstring {Receive\+Response}{ReceiveResponse}}{table.4.26}{}}
\newlabel{group__RN2483_ggacb2f570a8a6c9b4de627e1d50b780f6ba3a34805e0028790463d9e4bfa8fa8221}{{4.26}{35}{\texorpdfstring {Receive\+Response}{ReceiveResponse}}{table.4.26}{}}
\newlabel{group__RN2483_ggacb2f570a8a6c9b4de627e1d50b780f6babedfe5fca8c18d314f9f026228b920dd}{{4.26}{35}{\texorpdfstring {Receive\+Response}{ReceiveResponse}}{table.4.26}{}}
\newlabel{group__RN2483_ggacb2f570a8a6c9b4de627e1d50b780f6baa32e6205f99b0c938f00963965530f12}{{4.26}{35}{\texorpdfstring {Receive\+Response}{ReceiveResponse}}{table.4.26}{}}
\newlabel{group__RN2483_ggacb2f570a8a6c9b4de627e1d50b780f6ba91e18fc59f6ceae1f830796c73520afc}{{4.26}{35}{\texorpdfstring {Receive\+Response}{ReceiveResponse}}{table.4.26}{}}
\newlabel{group__RN2483_ggacb2f570a8a6c9b4de627e1d50b780f6ba3bae3a782d84424ff88eaada019b9ffe}{{4.26}{35}{\texorpdfstring {Receive\+Response}{ReceiveResponse}}{table.4.26}{}}
\newlabel{group__RN2483_ggacb2f570a8a6c9b4de627e1d50b780f6ba6b5a9af54c8700d4716320e78cd24a3c}{{4.26}{35}{\texorpdfstring {Receive\+Response}{ReceiveResponse}}{table.4.26}{}}
\newlabel{group__RN2483_ggacb2f570a8a6c9b4de627e1d50b780f6ba031cd83e809613d477ac4f89c2880de1}{{4.26}{35}{\texorpdfstring {Receive\+Response}{ReceiveResponse}}{table.4.26}{}}
\newlabel{group__RN2483_ggacb2f570a8a6c9b4de627e1d50b780f6bae1cd19e2d620091431a36ef322e803e9}{{4.26}{35}{\texorpdfstring {Receive\+Response}{ReceiveResponse}}{table.4.26}{}}
\newlabel{group__RN2483_ggacb2f570a8a6c9b4de627e1d50b780f6bac9b879167f7d14361ecaa205a00bc066}{{4.26}{35}{\texorpdfstring {Receive\+Response}{ReceiveResponse}}{table.4.26}{}}
\newlabel{group__RN2483_ggacb2f570a8a6c9b4de627e1d50b780f6ba71c448b6a229248aea11fd91842b55a0}{{4.26}{35}{\texorpdfstring {Receive\+Response}{ReceiveResponse}}{table.4.26}{}}
\newlabel{group__RN2483_ggacb2f570a8a6c9b4de627e1d50b780f6ba97e0fe78103e7cd75c150a9346411654}{{4.26}{35}{\texorpdfstring {Receive\+Response}{ReceiveResponse}}{table.4.26}{}}
\newlabel{group__RN2483_ggacb2f570a8a6c9b4de627e1d50b780f6baf2337cbcb259b91372e336fd0d5b94d4}{{4.26}{35}{\texorpdfstring {Receive\+Response}{ReceiveResponse}}{table.4.26}{}}
\newlabel{group__RN2483_ggacb2f570a8a6c9b4de627e1d50b780f6ba597652353f7d6ef985c0b70d841dd3c2}{{4.26}{35}{\texorpdfstring {Receive\+Response}{ReceiveResponse}}{table.4.26}{}}
\newlabel{group__RN2483_ggacb2f570a8a6c9b4de627e1d50b780f6bab5925b21abe40bd2c0bdfb49828a5f0a}{{4.26}{35}{\texorpdfstring {Receive\+Response}{ReceiveResponse}}{table.4.26}{}}
\newlabel{group__RN2483_ggacb2f570a8a6c9b4de627e1d50b780f6ba25ec86decf28fdea186696907246f86f}{{4.26}{35}{\texorpdfstring {Receive\+Response}{ReceiveResponse}}{table.4.26}{}}
\newlabel{group__RN2483_ggacb2f570a8a6c9b4de627e1d50b780f6ba540d4a14e112eb4fdeb702a06d3635a4}{{4.26}{35}{\texorpdfstring {Receive\+Response}{ReceiveResponse}}{table.4.26}{}}
\newlabel{group__RN2483_ggacb2f570a8a6c9b4de627e1d50b780f6ba3ab7090e4f2598453d0d049ae5f413e5}{{4.26}{35}{\texorpdfstring {Receive\+Response}{ReceiveResponse}}{table.4.26}{}}
\newlabel{group__RN2483_ggacb2f570a8a6c9b4de627e1d50b780f6ba7242ab6fc621e62abc7cc4c95aa6cb39}{{4.26}{35}{\texorpdfstring {Receive\+Response}{ReceiveResponse}}{table.4.26}{}}
\newlabel{group__RN2483_gaa89f3f94451a24163eccdefb8611cdbe}{{4.4.3.2}{35}{\texorpdfstring {Receive\+Response}{ReceiveResponse}}{table.4.26}{}}
\@writefile{toc}{\contentsline {subsubsection}{\numberline {4.4.3.3}R\discretionary {\unhbox \voidb@x \hbox {\relax \fontsize  {7}{8}\selectfont  $\leftarrow \joinrel  \rhook $}}{}{}N2483\discretionary {\unhbox \voidb@x \hbox {\relax \fontsize  {7}{8}\selectfont  $\leftarrow \joinrel  \rhook $}}{}{}\_\discretionary {\unhbox \voidb@x \hbox {\relax \fontsize  {7}{8}\selectfont  $\leftarrow \joinrel  \rhook $}}{}{}\discretionary {\unhbox \voidb@x \hbox {\relax \fontsize  {7}{8}\selectfont  $\leftarrow \joinrel  \rhook $}}{}{}Status}{35}{subsubsection.4.4.3.3}}
\newlabel{group__RN2483_ggaa89f3f94451a24163eccdefb8611cdbea9e1766fec082e6b1bd061d91f9fa18d6}{{4.27}{35}{\texorpdfstring {R\+N2483\+\_\+\+Status}{RN2483\_Status}}{table.4.27}{}}
\newlabel{group__RN2483_ggaa89f3f94451a24163eccdefb8611cdbea3325ddedbb086cb032046f43894e2e5f}{{4.27}{35}{\texorpdfstring {R\+N2483\+\_\+\+Status}{RN2483\_Status}}{table.4.27}{}}
\newlabel{group__RN2483_ggaa89f3f94451a24163eccdefb8611cdbea12698ec395b1a82f2fe111b0508fdd39}{{4.27}{35}{\texorpdfstring {R\+N2483\+\_\+\+Status}{RN2483\_Status}}{table.4.27}{}}
\newlabel{group__RN2483_ggaa89f3f94451a24163eccdefb8611cdbea2c7ef642e057ee6c6214e7a0bdb33312}{{4.27}{35}{\texorpdfstring {R\+N2483\+\_\+\+Status}{RN2483\_Status}}{table.4.27}{}}
\@writefile{toc}{\contentsline {subsection}{\numberline {4.4.4}Function Documentation}{35}{subsection.4.4.4}}
\newlabel{group__RN2483_gafa1e0b4da056e43161f47c6a148eb33e}{{4.4.4}{35}{Function Documentation}{subsection.4.4.4}{}}
\@writefile{toc}{\contentsline {subsubsection}{\numberline {4.4.4.1}L\discretionary {\unhbox \voidb@x \hbox {\relax \fontsize  {7}{8}\selectfont  $\leftarrow \joinrel  \rhook $}}{}{}E\discretionary {\unhbox \voidb@x \hbox {\relax \fontsize  {7}{8}\selectfont  $\leftarrow \joinrel  \rhook $}}{}{}U\discretionary {\unhbox \voidb@x \hbox {\relax \fontsize  {7}{8}\selectfont  $\leftarrow \joinrel  \rhook $}}{}{}A\discretionary {\unhbox \voidb@x \hbox {\relax \fontsize  {7}{8}\selectfont  $\leftarrow \joinrel  \rhook $}}{}{}R\discretionary {\unhbox \voidb@x \hbox {\relax \fontsize  {7}{8}\selectfont  $\leftarrow \joinrel  \rhook $}}{}{}T\discretionary {\unhbox \voidb@x \hbox {\relax \fontsize  {7}{8}\selectfont  $\leftarrow \joinrel  \rhook $}}{}{}Init()}{35}{subsubsection.4.4.4.1}}
\gdef \LT@xxviii {\LT@entry 
    {3}{34.30963pt}\LT@entry 
    {3}{12.4pt}}
\gdef \LT@xxix {\LT@entry 
    {3}{34.30963pt}\LT@entry 
    {1}{20.36116pt}}
\gdef \LT@xxx {\LT@entry 
    {3}{42.31035pt}\LT@entry 
    {3}{111.42503pt}}
\gdef \LT@xxxi {\LT@entry 
    {3}{127.60202pt}\LT@entry 
    {3}{327.64209pt}}
\newlabel{group__RN2483_gaa3d2ea31d2801b6b8b31888ebe3ab80b}{{4.4.4.1}{36}{\texorpdfstring {L\+E\+U\+A\+R\+T\+Init()}{LEUARTInit()}}{table.4.29}{}}
\@writefile{toc}{\contentsline {subsubsection}{\numberline {4.4.4.2}Parse\discretionary {\unhbox \voidb@x \hbox {\relax \fontsize  {7}{8}\selectfont  $\leftarrow \joinrel  \rhook $}}{}{}Response()}{36}{subsubsection.4.4.4.2}}
\gdef \LT@xxxii {\LT@entry 
    {3}{54.28041pt}\LT@entry 
    {3}{242.50714pt}}
\gdef \LT@xxxiii {\LT@entry 
    {3}{34.30963pt}\LT@entry 
    {3}{12.4pt}}
\gdef \LT@xxxiv {\LT@entry 
    {3}{91.37767pt}\LT@entry 
    {3}{96.94443pt}}
\newlabel{group__RN2483_ga468c0f4f912b59258e0aa2bc91aab330}{{4.4.4.2}{37}{\texorpdfstring {Parse\+Response()}{ParseResponse()}}{table.4.31}{}}
\@writefile{toc}{\contentsline {subsubsection}{\numberline {4.4.4.3}rn2483\discretionary {\unhbox \voidb@x \hbox {\relax \fontsize  {7}{8}\selectfont  $\leftarrow \joinrel  \rhook $}}{}{}\_\discretionary {\unhbox \voidb@x \hbox {\relax \fontsize  {7}{8}\selectfont  $\leftarrow \joinrel  \rhook $}}{}{}init()}{37}{subsubsection.4.4.4.3}}
\newlabel{group__RN2483_ga37c313e21755d4d3e9c62fe1ab65ef54}{{4.4.4.3}{37}{\texorpdfstring {rn2483\+\_\+init()}{rn2483\_init()}}{table.4.32}{}}
\@writefile{toc}{\contentsline {subsubsection}{\numberline {4.4.4.4}rn2483\discretionary {\unhbox \voidb@x \hbox {\relax \fontsize  {7}{8}\selectfont  $\leftarrow \joinrel  \rhook $}}{}{}\_\discretionary {\unhbox \voidb@x \hbox {\relax \fontsize  {7}{8}\selectfont  $\leftarrow \joinrel  \rhook $}}{}{}join\discretionary {\unhbox \voidb@x \hbox {\relax \fontsize  {7}{8}\selectfont  $\leftarrow \joinrel  \rhook $}}{}{}\_\discretionary {\unhbox \voidb@x \hbox {\relax \fontsize  {7}{8}\selectfont  $\leftarrow \joinrel  \rhook $}}{}{}abp()}{37}{subsubsection.4.4.4.4}}
\newlabel{group__RN2483_gaf98b451614898b3c5297ef44513fe00f}{{4.4.4.4}{37}{\texorpdfstring {rn2483\+\_\+join\+\_\+abp()}{rn2483\_join\_abp()}}{table.4.34}{}}
\@writefile{toc}{\contentsline {subsubsection}{\numberline {4.4.4.5}rn2483\discretionary {\unhbox \voidb@x \hbox {\relax \fontsize  {7}{8}\selectfont  $\leftarrow \joinrel  \rhook $}}{}{}\_\discretionary {\unhbox \voidb@x \hbox {\relax \fontsize  {7}{8}\selectfont  $\leftarrow \joinrel  \rhook $}}{}{}join\discretionary {\unhbox \voidb@x \hbox {\relax \fontsize  {7}{8}\selectfont  $\leftarrow \joinrel  \rhook $}}{}{}\_\discretionary {\unhbox \voidb@x \hbox {\relax \fontsize  {7}{8}\selectfont  $\leftarrow \joinrel  \rhook $}}{}{}otaa()}{37}{subsubsection.4.4.4.5}}
\gdef \LT@xxxv {\LT@entry 
    {3}{34.30963pt}\LT@entry 
    {3}{12.4pt}}
\gdef \LT@xxxvi {\LT@entry 
    {3}{91.37767pt}\LT@entry 
    {3}{103.44235pt}}
\gdef \LT@xxxvii {\LT@entry 
    {3}{34.30963pt}\LT@entry 
    {3}{12.4pt}}
\gdef \LT@xxxviii {\LT@entry 
    {3}{70.81296pt}\LT@entry 
    {3}{106.34904pt}}
\gdef \LT@xxxix {\LT@entry 
    {3}{52.30939pt}\LT@entry 
    {3}{194.50177pt}}
\newlabel{group__RN2483_gabfa7546cd42ad481a0c51ff006823580}{{4.4.4.5}{38}{\texorpdfstring {rn2483\+\_\+join\+\_\+otaa()}{rn2483\_join\_otaa()}}{table.4.36}{}}
\@writefile{toc}{\contentsline {subsubsection}{\numberline {4.4.4.6}rn2483\discretionary {\unhbox \voidb@x \hbox {\relax \fontsize  {7}{8}\selectfont  $\leftarrow \joinrel  \rhook $}}{}{}\_\discretionary {\unhbox \voidb@x \hbox {\relax \fontsize  {7}{8}\selectfont  $\leftarrow \joinrel  \rhook $}}{}{}set\discretionary {\unhbox \voidb@x \hbox {\relax \fontsize  {7}{8}\selectfont  $\leftarrow \joinrel  \rhook $}}{}{}\_\discretionary {\unhbox \voidb@x \hbox {\relax \fontsize  {7}{8}\selectfont  $\leftarrow \joinrel  \rhook $}}{}{}deveui()}{38}{subsubsection.4.4.4.6}}
\newlabel{group__RN2483_ga43e4c500d83f18a7222fe2ba4894b5e9}{{4.4.4.6}{38}{\texorpdfstring {rn2483\+\_\+set\+\_\+deveui()}{rn2483\_set\_deveui()}}{table.4.38}{}}
\@writefile{toc}{\contentsline {subsubsection}{\numberline {4.4.4.7}send\discretionary {\unhbox \voidb@x \hbox {\relax \fontsize  {7}{8}\selectfont  $\leftarrow \joinrel  \rhook $}}{}{}\_\discretionary {\unhbox \voidb@x \hbox {\relax \fontsize  {7}{8}\selectfont  $\leftarrow \joinrel  \rhook $}}{}{}command()}{38}{subsubsection.4.4.4.7}}
\gdef \LT@xl {\LT@entry 
    {3}{127.60202pt}\LT@entry 
    {3}{327.64209pt}}
\gdef \LT@xli {\LT@entry 
    {3}{79.21896pt}\LT@entry 
    {3}{138.2176pt}}
\gdef \LT@xlii {\LT@entry 
    {3}{70.81296pt}\LT@entry 
    {3}{106.34904pt}}
\newlabel{group__RN2483_ga725cbfd618403e37e96b0dc91cc97c8c}{{4.4.4.7}{39}{\texorpdfstring {send\+\_\+command()}{send\_command()}}{table.4.40}{}}
\@writefile{toc}{\contentsline {subsubsection}{\numberline {4.4.4.8}setup\discretionary {\unhbox \voidb@x \hbox {\relax \fontsize  {7}{8}\selectfont  $\leftarrow \joinrel  \rhook $}}{}{}\_\discretionary {\unhbox \voidb@x \hbox {\relax \fontsize  {7}{8}\selectfont  $\leftarrow \joinrel  \rhook $}}{}{}retransmissions()}{39}{subsubsection.4.4.4.8}}
\@setckpt{group__RN2483}{
\setcounter{page}{40}
\setcounter{equation}{0}
\setcounter{enumi}{0}
\setcounter{enumii}{0}
\setcounter{enumiii}{0}
\setcounter{enumiv}{0}
\setcounter{footnote}{0}
\setcounter{mpfootnote}{0}
\setcounter{part}{0}
\setcounter{chapter}{4}
\setcounter{section}{4}
\setcounter{subsection}{4}
\setcounter{subsubsection}{8}
\setcounter{paragraph}{0}
\setcounter{subparagraph}{0}
\setcounter{figure}{0}
\setcounter{table}{42}
\setcounter{float@type}{4}
\setcounter{LT@tables}{42}
\setcounter{LT@chunks}{3}
\setcounter{NAT@ctr}{0}
\setcounter{lofdepth}{1}
\setcounter{lotdepth}{1}
\setcounter{Item}{0}
\setcounter{Hfootnote}{0}
\setcounter{bookmark@seq@number}{136}
\setcounter{ContinuedFloat}{0}
\setcounter{section@level}{3}
}
