\relax 
\providecommand\hyper@newdestlabel[2]{}
\providecommand\HyperFirstAtBeginDocument{\AtBeginDocument}
\HyperFirstAtBeginDocument{\ifx\hyper@anchor\@undefined
\global\let\oldcontentsline\contentsline
\gdef\contentsline#1#2#3#4{\oldcontentsline{#1}{#2}{#3}}
\global\let\oldnewlabel\newlabel
\gdef\newlabel#1#2{\newlabelxx{#1}#2}
\gdef\newlabelxx#1#2#3#4#5#6{\oldnewlabel{#1}{{#2}{#3}}}
\AtEndDocument{\ifx\hyper@anchor\@undefined
\let\contentsline\oldcontentsline
\let\newlabel\oldnewlabel
\fi}
\fi}
\global\let\hyper@last\relax 
\gdef\HyperFirstAtBeginDocument#1{#1}
\providecommand\HyField@AuxAddToFields[1]{}
\providecommand\HyField@AuxAddToCoFields[2]{}
\providecommand \oddpage@label [2]{}
\@writefile{toc}{\contentsline {chapter}{\numberline {1}Sheelpers progam}{1}{chapter.1}}
\@writefile{lof}{\addvspace {10\p@ }}
\@writefile{lot}{\addvspace {10\p@ }}
\newlabel{index}{{1}{1}{Sheelpers progam}{chapter.1}{}}
\@writefile{toc}{\contentsline {chapter}{\numberline {2}Module Index}{3}{chapter.2}}
\@writefile{lof}{\addvspace {10\p@ }}
\@writefile{lot}{\addvspace {10\p@ }}
\@writefile{toc}{\contentsline {section}{\numberline {2.1}Modules}{3}{section.2.1}}
\@writefile{toc}{\contentsline {chapter}{\numberline {3}File Index}{5}{chapter.3}}
\@writefile{lof}{\addvspace {10\p@ }}
\@writefile{lot}{\addvspace {10\p@ }}
\@writefile{toc}{\contentsline {section}{\numberline {3.1}File List}{5}{section.3.1}}
\@writefile{toc}{\contentsline {chapter}{\numberline {4}Module Documentation}{7}{chapter.4}}
\@writefile{lof}{\addvspace {10\p@ }}
\@writefile{lot}{\addvspace {10\p@ }}
\@writefile{toc}{\contentsline {section}{\numberline {4.1}I\discretionary {\unhbox \voidb@x \hbox {\relax \fontsize  {7}{8}\selectfont  $\leftarrow \joinrel  \rhook $}}{}{}R\discretionary {\unhbox \voidb@x \hbox {\relax \fontsize  {7}{8}\selectfont  $\leftarrow \joinrel  \rhook $}}{}{}Q\discretionary {\unhbox \voidb@x \hbox {\relax \fontsize  {7}{8}\selectfont  $\leftarrow \joinrel  \rhook $}}{}{}Handlers}{7}{section.4.1}}
\newlabel{group__IRQHandlers}{{4.1}{7}{I\+R\+Q\+Handlers}{section.4.1}{}}
\newlabel{group__IRQHandlers_ga87d72653156b83829786f1f856ecbad1}{{4.1}{7}{Functions}{section*.3}{}}
\newlabel{group__IRQHandlers_ga8fff5a798ff4721659dc7bdbb3149c8b}{{4.1}{7}{Functions}{section*.3}{}}
\newlabel{group__IRQHandlers_ga1b6100ae82f114fbb9ff3c46bbb369c2}{{4.1}{7}{Functions}{section*.3}{}}
\newlabel{group__IRQHandlers_ga7699ea9a2d8c5ade52a270314cd0c353}{{4.1}{7}{Variables}{section*.4}{}}
\newlabel{group__IRQHandlers_ga642fdcd2d299951db1927d4f366644a7}{{4.1}{7}{Variables}{section*.4}{}}
\newlabel{group__IRQHandlers_ga165e785383136e786d9e92be4c37e2b6}{{4.1}{7}{Variables}{section*.4}{}}
\@writefile{toc}{\contentsline {subsection}{\numberline {4.1.1}Detailed Description}{7}{subsection.4.1.1}}
\@input{group__LIS3DH.aux}
\@input{group__Main.aux}
\@input{group__RN2483.aux}
\@input{group__STRCONV.aux}
\@writefile{toc}{\contentsline {chapter}{\numberline {5}File Documentation}{41}{chapter.5}}
\@writefile{lof}{\addvspace {10\p@ }}
\@writefile{lot}{\addvspace {10\p@ }}
\@writefile{toc}{\contentsline {section}{\numberline {5.1}inc/\discretionary {\unhbox \voidb@x \hbox {\relax \fontsize  {7}{8}\selectfont  $\leftarrow \joinrel  \rhook $}}{}{}I\discretionary {\unhbox \voidb@x \hbox {\relax \fontsize  {7}{8}\selectfont  $\leftarrow \joinrel  \rhook $}}{}{}R\discretionary {\unhbox \voidb@x \hbox {\relax \fontsize  {7}{8}\selectfont  $\leftarrow \joinrel  \rhook $}}{}{}Q\discretionary {\unhbox \voidb@x \hbox {\relax \fontsize  {7}{8}\selectfont  $\leftarrow \joinrel  \rhook $}}{}{}Handlers.h File Reference}{41}{section.5.1}}
\newlabel{IRQHandlers_8h}{{5.1}{41}{inc/\+I\+R\+Q\+Handlers.h File Reference}{section.5.1}{}}
\@writefile{toc}{\contentsline {subsection}{\numberline {5.1.1}Detailed Description}{41}{subsection.5.1.1}}
\@writefile{toc}{\contentsline {section}{\numberline {5.2}inc/\discretionary {\unhbox \voidb@x \hbox {\relax \fontsize  {7}{8}\selectfont  $\leftarrow \joinrel  \rhook $}}{}{}L\discretionary {\unhbox \voidb@x \hbox {\relax \fontsize  {7}{8}\selectfont  $\leftarrow \joinrel  \rhook $}}{}{}I\discretionary {\unhbox \voidb@x \hbox {\relax \fontsize  {7}{8}\selectfont  $\leftarrow \joinrel  \rhook $}}{}{}S3\discretionary {\unhbox \voidb@x \hbox {\relax \fontsize  {7}{8}\selectfont  $\leftarrow \joinrel  \rhook $}}{}{}DH.h File Reference}{42}{section.5.2}}
\newlabel{LIS3DH_8h}{{5.2}{42}{inc/\+L\+I\+S3\+DH.h File Reference}{section.5.2}{}}
\@writefile{toc}{\contentsline {subsection}{\numberline {5.2.1}Detailed Description}{45}{subsection.5.2.1}}
\@writefile{toc}{\contentsline {section}{\numberline {5.3}inc/main.h File Reference}{45}{section.5.3}}
\newlabel{main_8h}{{5.3}{45}{inc/main.h File Reference}{section.5.3}{}}
\@writefile{toc}{\contentsline {subsection}{\numberline {5.3.1}Detailed Description}{46}{subsection.5.3.1}}
\@writefile{toc}{\contentsline {section}{\numberline {5.4}inc/\discretionary {\unhbox \voidb@x \hbox {\relax \fontsize  {7}{8}\selectfont  $\leftarrow \joinrel  \rhook $}}{}{}String\discretionary {\unhbox \voidb@x \hbox {\relax \fontsize  {7}{8}\selectfont  $\leftarrow \joinrel  \rhook $}}{}{}Conversions.h File Reference}{47}{section.5.4}}
\newlabel{StringConversions_8h}{{5.4}{47}{inc/\+String\+Conversions.h File Reference}{section.5.4}{}}
\@writefile{toc}{\contentsline {subsection}{\numberline {5.4.1}Detailed Description}{47}{subsection.5.4.1}}
\@writefile{toc}{\contentsline {section}{\numberline {5.5}src/\discretionary {\unhbox \voidb@x \hbox {\relax \fontsize  {7}{8}\selectfont  $\leftarrow \joinrel  \rhook $}}{}{}I\discretionary {\unhbox \voidb@x \hbox {\relax \fontsize  {7}{8}\selectfont  $\leftarrow \joinrel  \rhook $}}{}{}R\discretionary {\unhbox \voidb@x \hbox {\relax \fontsize  {7}{8}\selectfont  $\leftarrow \joinrel  \rhook $}}{}{}Q\discretionary {\unhbox \voidb@x \hbox {\relax \fontsize  {7}{8}\selectfont  $\leftarrow \joinrel  \rhook $}}{}{}Handlers.c File Reference}{47}{section.5.5}}
\newlabel{IRQHandlers_8c}{{5.5}{47}{src/\+I\+R\+Q\+Handlers.c File Reference}{section.5.5}{}}
\@writefile{toc}{\contentsline {subsection}{\numberline {5.5.1}Detailed Description}{48}{subsection.5.5.1}}
\@writefile{toc}{\contentsline {section}{\numberline {5.6}src/\discretionary {\unhbox \voidb@x \hbox {\relax \fontsize  {7}{8}\selectfont  $\leftarrow \joinrel  \rhook $}}{}{}L\discretionary {\unhbox \voidb@x \hbox {\relax \fontsize  {7}{8}\selectfont  $\leftarrow \joinrel  \rhook $}}{}{}I\discretionary {\unhbox \voidb@x \hbox {\relax \fontsize  {7}{8}\selectfont  $\leftarrow \joinrel  \rhook $}}{}{}S3\discretionary {\unhbox \voidb@x \hbox {\relax \fontsize  {7}{8}\selectfont  $\leftarrow \joinrel  \rhook $}}{}{}DH.c File Reference}{48}{section.5.6}}
\newlabel{LIS3DH_8c}{{5.6}{48}{src/\+L\+I\+S3\+DH.c File Reference}{section.5.6}{}}
\@writefile{toc}{\contentsline {subsection}{\numberline {5.6.1}Detailed Description}{49}{subsection.5.6.1}}
\@writefile{toc}{\contentsline {section}{\numberline {5.7}src/main.c File Reference}{50}{section.5.7}}
\newlabel{main_8c}{{5.7}{50}{src/main.c File Reference}{section.5.7}{}}
\@writefile{toc}{\contentsline {subsection}{\numberline {5.7.1}Detailed Description}{51}{subsection.5.7.1}}
\@writefile{toc}{\contentsline {section}{\numberline {5.8}src/\discretionary {\unhbox \voidb@x \hbox {\relax \fontsize  {7}{8}\selectfont  $\leftarrow \joinrel  \rhook $}}{}{}String\discretionary {\unhbox \voidb@x \hbox {\relax \fontsize  {7}{8}\selectfont  $\leftarrow \joinrel  \rhook $}}{}{}Conversions.c File Reference}{51}{section.5.8}}
\newlabel{StringConversions_8c}{{5.8}{51}{src/\+String\+Conversions.c File Reference}{section.5.8}{}}
\@writefile{toc}{\contentsline {subsection}{\numberline {5.8.1}Detailed Description}{51}{subsection.5.8.1}}
\@writefile{toc}{\contentsline {chapter}{Index}{53}{section*.29}}
